<?xml version="1.0" encoding="UTF-8" standalone="no"?>
<?xml-stylesheet href="../../styles/forest.css" type="text/css"?>
<!DOCTYPE svg PUBLIC "-//W3C//DTD SVG 1.1//EN"
 "http://www.w3.org/Graphics/SVG/1.1/DTD/svg11.dtd">
<!-- Generated by graphviz version 2.40.1 (20161225.0304)
 -->
<!-- Title: %3 Pages: 1 -->
<svg width="980pt" height="182pt"
 viewBox="0.00 0.00 980.43 182.00" xmlns="http://www.w3.org/2000/svg" xmlns:xlink="http://www.w3.org/1999/xlink">
<g id="graph0" class="graph" transform="scale(1 1) rotate(0) translate(4 178)">
<title>%3</title>
<polygon fill="#ffffff" stroke="transparent" points="-4,4 -4,-178 976.4325,-178 976.4325,4 -4,4"/>
<g id="clust1" class="cluster">
<title>cluster_master</title>
<polygon fill="none" stroke="#000000" points="8,-91 8,-166 964.4325,-166 964.4325,-91 8,-91"/>
<text text-anchor="middle" x="486.2163" y="-150.8" font-family="Times,serif" font-size="14.00" fill="#000000">master</text>
</g>
<g id="clust2" class="cluster">
<title>cluster_workshop</title>
<polygon fill="none" stroke="#000000" points="622.5582,-8 622.5582,-83 929.3356,-83 929.3356,-8 622.5582,-8"/>
<text text-anchor="middle" x="775.9469" y="-67.8" font-family="Times,serif" font-size="14.00" fill="#000000">workshop</text>
</g>
<!-- 1 -->
<g id="node1" class="node">
<title>1</title>
<ellipse fill="none" stroke="#000000" cx="103.0923" cy="-117" rx="87.1846" ry="18"/>
<text text-anchor="middle" x="103.0923" y="-113.3" font-family="Helvetica,sans-Serif" font-size="14.00" fill="#000000">Empty shopping list</text>
</g>
<!-- 2 -->
<g id="node2" class="node">
<title>2</title>
<ellipse fill="none" stroke="#000000" cx="280.1298" cy="-117" rx="53.8905" ry="18"/>
<text text-anchor="middle" x="280.1298" y="-113.3" font-family="Helvetica,sans-Serif" font-size="14.00" fill="#000000">Buy Coffee</text>
</g>
<!-- 1&#45;&gt;2 -->
<g id="edge1" class="edge">
<title>1&#45;&gt;2</title>
<path fill="none" stroke="#000000" d="M190.3144,-117C199.0015,-117 207.7052,-117 216.0908,-117"/>
<polygon fill="#000000" stroke="#000000" points="216.1392,-120.5001 226.1392,-117 216.1392,-113.5001 216.1392,-120.5001"/>
</g>
<!-- 3 -->
<g id="node3" class="node">
<title>3</title>
<ellipse fill="none" stroke="#000000" cx="420.1205" cy="-117" rx="50.0912" ry="18"/>
<text text-anchor="middle" x="420.1205" y="-113.3" font-family="Helvetica,sans-Serif" font-size="14.00" fill="#000000">Buy donut</text>
</g>
<!-- 2&#45;&gt;3 -->
<g id="edge2" class="edge">
<title>2&#45;&gt;3</title>
<path fill="none" stroke="#000000" d="M334.2538,-117C342.5682,-117 351.1979,-117 359.6395,-117"/>
<polygon fill="#000000" stroke="#000000" points="359.8094,-120.5001 369.8093,-117 359.8093,-113.5001 359.8094,-120.5001"/>
</g>
<!-- 4 -->
<g id="node4" class="node">
<title>4</title>
<ellipse fill="none" stroke="#000000" cx="550.3622" cy="-117" rx="44.393" ry="18"/>
<text text-anchor="middle" x="550.3622" y="-113.3" font-family="Helvetica,sans-Serif" font-size="14.00" fill="#000000">Buy milk</text>
</g>
<!-- 3&#45;&gt;4 -->
<g id="edge3" class="edge">
<title>3&#45;&gt;4</title>
<path fill="none" stroke="#000000" d="M470.4753,-117C478.8214,-117 487.509,-117 495.9497,-117"/>
<polygon fill="#000000" stroke="#000000" points="496.0837,-120.5001 506.0837,-117 496.0837,-113.5001 496.0837,-120.5001"/>
</g>
<!-- 5 -->
<g id="node5" class="node">
<title>5</title>
<ellipse fill="none" stroke="#000000" cx="694.2526" cy="-117" rx="50.0912" ry="18"/>
<text text-anchor="middle" x="694.2526" y="-113.3" font-family="Helvetica,sans-Serif" font-size="14.00" fill="#000000">Buy sugar</text>
</g>
<!-- 4&#45;&gt;5 -->
<g id="edge4" class="edge">
<title>4&#45;&gt;5</title>
<path fill="none" stroke="#000000" d="M594.7081,-117C607.0228,-117 620.609,-117 633.6812,-117"/>
<polygon fill="#000000" stroke="#000000" points="634.0207,-120.5001 644.0206,-117 634.0206,-113.5001 634.0207,-120.5001"/>
</g>
<!-- w5 -->
<g id="node7" class="node">
<title>w5</title>
<ellipse fill="none" stroke="#000000" cx="694.2526" cy="-34" rx="63.8893" ry="18"/>
<text text-anchor="middle" x="694.2526" y="-30.3" font-family="Helvetica,sans-Serif" font-size="14.00" fill="#000000">Buy bandsaw</text>
</g>
<!-- 4&#45;&gt;w5 -->
<g id="edge6" class="edge">
<title>4&#45;&gt;w5</title>
<path fill="none" stroke="#000000" d="M576.0869,-102.1613C598.5492,-89.2044 631.4355,-70.2347 656.8148,-55.5951"/>
<polygon fill="#000000" stroke="#000000" points="658.8789,-58.4452 665.7922,-50.4167 655.3812,-52.3816 658.8789,-58.4452"/>
</g>
<!-- 6 -->
<g id="node6" class="node HEAD">
<title>6</title>
<ellipse fill="none" stroke="#000000" cx="875.1897" cy="-117" rx="81.4863" ry="18"/>
<text text-anchor="middle" x="875.1897" y="-113.3" font-family="Helvetica,sans-Serif" font-size="14.00" fill="#000000">Merged workshop</text>
</g>
<!-- 5&#45;&gt;6 -->
<g id="edge5" class="edge">
<title>5&#45;&gt;6</title>
<path fill="none" stroke="#000000" d="M744.6537,-117C756.8193,-117 770.1963,-117 783.6059,-117"/>
<polygon fill="#000000" stroke="#000000" points="783.8473,-120.5001 793.8472,-117 783.8472,-113.5001 783.8473,-120.5001"/>
</g>
<!-- w6 -->
<g id="node8" class="node HEAD">
<title>w6</title>
<ellipse fill="none" stroke="#000000" cx="875.1897" cy="-34" rx="46.2923" ry="18"/>
<text text-anchor="middle" x="875.1897" y="-30.3" font-family="Helvetica,sans-Serif" font-size="14.00" fill="#000000">Buy anvil</text>
</g>
<!-- w5&#45;&gt;w6 -->
<g id="edge7" class="edge">
<title>w5&#45;&gt;w6</title>
<path fill="none" stroke="#000000" d="M758.0443,-34C777.8804,-34 799.5955,-34 818.8826,-34"/>
<polygon fill="#000000" stroke="#000000" points="819.0214,-37.5001 829.0214,-34 819.0213,-30.5001 819.0214,-37.5001"/>
</g>
<!-- w6&#45;&gt;6 -->
<g id="edge8" class="edge">
<title>w6&#45;&gt;6</title>
<path fill="none" stroke="#000000" d="M875.1897,-52.1563C875.1897,-64.2933 875.1897,-76.4304 875.1897,-88.5675"/>
<polygon fill="#000000" stroke="#000000" points="871.6898,-88.7627 875.1897,-98.7627 878.6898,-88.7627 871.6898,-88.7627"/>
</g>
</g>
</svg>
